EESchema Schematic File Version 2
LIBS:power
LIBS:device
LIBS:transistors
LIBS:conn
LIBS:linear
LIBS:regul
LIBS:74xx
LIBS:cmos4000
LIBS:adc-dac
LIBS:memory
LIBS:xilinx
LIBS:special
LIBS:microcontrollers
LIBS:dsp
LIBS:microchip
LIBS:analog_switches
LIBS:motorola
LIBS:texas
LIBS:intel
LIBS:audio
LIBS:interface
LIBS:digital-audio
LIBS:philips
LIBS:display
LIBS:cypress
LIBS:siliconi
LIBS:opto
LIBS:atmel
LIBS:contrib
LIBS:valves
LIBS:AMC71xx
LIBS:circuit-cache
EELAYER 27 0
EELAYER END
$Descr A4 11693 8268
encoding utf-8
Sheet 1 1
Title ""
Date "20 jul 2014"
Rev ""
Comp ""
Comment1 ""
Comment2 ""
Comment3 ""
Comment4 ""
$EndDescr
$Comp
L AMC7135 U1
U 1 1 53B8E5D8
P 5700 3750
F 0 "U1" H 5700 4000 60  0000 C CNN
F 1 "AMC7135" H 5700 3450 60  0000 C CNN
F 2 "~" H 5700 3750 60  0000 C CNN
F 3 "~" H 5700 3750 60  0000 C CNN
	1    5700 3750
	1    0    0    -1  
$EndComp
Text Label 6250 4000 0    60   ~ 0
LED-
$Comp
L GND #PWR03
U 1 1 53B8E71A
P 4950 3800
F 0 "#PWR03" H 4950 3800 30  0001 C CNN
F 1 "GND" H 4950 3730 30  0001 C CNN
F 2 "" H 4950 3800 60  0000 C CNN
F 3 "" H 4950 3800 60  0000 C CNN
	1    4950 3800
	-1   0    0    -1  
$EndComp
$Comp
L VCC #PWR04
U 1 1 53B8E720
P 4950 3600
F 0 "#PWR04" H 4950 3700 30  0001 C CNN
F 1 "VCC" H 4950 3700 30  0000 C CNN
F 2 "" H 4950 3600 60  0000 C CNN
F 3 "" H 4950 3600 60  0000 C CNN
	1    4950 3600
	-1   0    0    -1  
$EndComp
$Comp
L CONN_3 P1
U 1 1 53B8E953
P 4450 3750
F 0 "P1" V 4400 3750 50  0000 C CNN
F 1 "CONN_3" V 4500 3750 40  0000 C CNN
F 2 "" H 4450 3750 60  0000 C CNN
F 3 "" H 4450 3750 60  0000 C CNN
	1    4450 3750
	-1   0    0    -1  
$EndComp
Text Label 4850 4000 0    60   ~ 0
LED-
$Comp
L C C1
U 1 1 53C8B8BF
P 5250 3750
F 0 "C1" H 5250 3850 40  0000 L CNN
F 1 ".1uF" H 5256 3665 40  0000 L CNN
F 2 "~" H 5288 3600 30  0000 C CNN
F 3 "~" H 5250 3750 60  0000 C CNN
	1    5250 3750
	1    0    0    -1  
$EndComp
$Comp
L GND #PWR?
U 1 1 53C8B8D2
P 5250 3950
F 0 "#PWR?" H 5250 3950 30  0001 C CNN
F 1 "GND" H 5250 3880 30  0001 C CNN
F 2 "" H 5250 3950 60  0000 C CNN
F 3 "" H 5250 3950 60  0000 C CNN
	1    5250 3950
	1    0    0    -1  
$EndComp
$Comp
L VCC #PWR?
U 1 1 53C8B8D8
P 5250 3550
F 0 "#PWR?" H 5250 3650 30  0001 C CNN
F 1 "VCC" H 5250 3650 30  0000 C CNN
F 2 "" H 5250 3550 60  0000 C CNN
F 3 "" H 5250 3550 60  0000 C CNN
	1    5250 3550
	1    0    0    -1  
$EndComp
$Comp
L GND #PWR?
U 1 1 53CB1202
P 6250 3800
F 0 "#PWR?" H 6250 3800 30  0001 C CNN
F 1 "GND" H 6250 3730 30  0001 C CNN
F 2 "" H 6250 3800 60  0000 C CNN
F 3 "" H 6250 3800 60  0000 C CNN
	1    6250 3800
	1    0    0    -1  
$EndComp
$Comp
L CONN_3 P2
U 1 1 53CB120E
P 6750 3750
F 0 "P2" V 6700 3750 50  0000 C CNN
F 1 "CONN_3" V 6800 3750 40  0000 C CNN
F 2 "" H 6750 3750 60  0000 C CNN
F 3 "" H 6750 3750 60  0000 C CNN
	1    6750 3750
	1    0    0    1   
$EndComp
Wire Wire Line
	4800 3650 4950 3650
Wire Wire Line
	4800 3750 4950 3750
$Comp
L VCC #PWR?
U 1 1 53CB1263
P 6250 3600
F 0 "#PWR?" H 6250 3700 30  0001 C CNN
F 1 "VCC" H 6250 3700 30  0000 C CNN
F 2 "" H 6250 3600 60  0000 C CNN
F 3 "" H 6250 3600 60  0000 C CNN
	1    6250 3600
	1    0    0    -1  
$EndComp
Wire Wire Line
	6400 3750 6100 3750
Connection ~ 6250 3750
Wire Wire Line
	4800 3850 4850 3850
Wire Wire Line
	4850 3850 4850 4000
Wire Wire Line
	6100 3850 6150 3850
Wire Wire Line
	6150 3850 6150 3900
Wire Wire Line
	6150 3900 6350 3900
Wire Wire Line
	6350 3900 6350 3850
Wire Wire Line
	6350 3850 6400 3850
Wire Wire Line
	6250 3750 6250 3800
Wire Wire Line
	6100 3650 6400 3650
Wire Wire Line
	6250 3600 6250 3650
Connection ~ 6250 3650
Wire Wire Line
	4950 3750 4950 3800
Wire Wire Line
	4950 3650 4950 3600
Wire Wire Line
	6250 3900 6250 4000
Connection ~ 6250 3900
$EndSCHEMATC
