G04 (created by PCBNEW (2013-07-07 BZR 4022)-stable) date 2/8/2015 10:10:48 PM*
%MOIN*%
G04 Gerber Fmt 3.4, Leading zero omitted, Abs format*
%FSLAX34Y34*%
G01*
G70*
G90*
G04 APERTURE LIST*
%ADD10C,0.00590551*%
%ADD11C,0.056*%
%ADD12R,0.0275591X0.0629921*%
%ADD13R,0.0275591X0.0866142*%
%ADD14R,0.0787402X0.110236*%
%ADD15C,0.027*%
%ADD16C,0.02*%
%ADD17C,0.007*%
G04 APERTURE END LIST*
G54D10*
G54D11*
X-1000Y2750D03*
X0Y2750D03*
X1000Y2750D03*
X1000Y-250D03*
X0Y-250D03*
X-1000Y-250D03*
G54D12*
X-590Y587D03*
G54D13*
X0Y705D03*
G54D12*
X590Y587D03*
G54D14*
X0Y1689D03*
G54D15*
X629Y2244D03*
X-629Y2244D03*
X629Y2007D03*
X-629Y2007D03*
X625Y1250D03*
X-625Y1250D03*
X625Y1500D03*
X-625Y1500D03*
X625Y1750D03*
X-625Y1750D03*
G54D16*
X-590Y587D02*
X-590Y159D01*
X-590Y159D02*
X-1000Y-250D01*
X-1000Y-250D02*
X-1000Y350D01*
X-1000Y2750D02*
X-1000Y350D01*
X0Y-250D02*
X0Y2750D01*
X0Y1689D02*
X75Y1689D01*
X75Y1689D02*
X629Y2244D01*
X0Y1689D02*
X-75Y1689D01*
X-75Y1689D02*
X-629Y2244D01*
X0Y1689D02*
X312Y1689D01*
X312Y1689D02*
X629Y2007D01*
X0Y1689D02*
X-312Y1689D01*
X-312Y1689D02*
X-629Y2007D01*
X0Y1670D02*
X205Y1670D01*
X205Y1670D02*
X625Y1250D01*
X0Y1670D02*
X-205Y1670D01*
X-205Y1670D02*
X-625Y1250D01*
X0Y1670D02*
X455Y1670D01*
X455Y1670D02*
X625Y1500D01*
X0Y1670D02*
X-455Y1670D01*
X-455Y1670D02*
X-625Y1500D01*
X0Y1670D02*
X545Y1670D01*
X545Y1670D02*
X625Y1750D01*
X0Y1670D02*
X-545Y1670D01*
X-545Y1670D02*
X-625Y1750D01*
X590Y587D02*
X590Y159D01*
X590Y159D02*
X1000Y-250D01*
X1000Y2750D02*
X1000Y300D01*
X1000Y300D02*
X1000Y-250D01*
G54D10*
G36*
X1390Y-640D02*
X1385Y-640D01*
X1385Y-212D01*
X1370Y-138D01*
X1341Y-68D01*
X1299Y-5D01*
X1246Y48D01*
X1205Y76D01*
X1205Y300D01*
X1205Y2424D01*
X1238Y2445D01*
X1292Y2497D01*
X1336Y2558D01*
X1367Y2627D01*
X1383Y2701D01*
X1385Y2787D01*
X1370Y2861D01*
X1341Y2931D01*
X1299Y2994D01*
X1246Y3048D01*
X1184Y3090D01*
X1114Y3119D01*
X1040Y3134D01*
X964Y3135D01*
X890Y3121D01*
X820Y3092D01*
X757Y3051D01*
X703Y2998D01*
X660Y2936D01*
X631Y2866D01*
X615Y2793D01*
X614Y2717D01*
X628Y2643D01*
X655Y2573D01*
X696Y2509D01*
X749Y2455D01*
X795Y2423D01*
X795Y984D01*
X778Y995D01*
X759Y1003D01*
X739Y1007D01*
X718Y1007D01*
X498Y1007D01*
X498Y1148D01*
X498Y2231D01*
X498Y2252D01*
X494Y2272D01*
X486Y2291D01*
X474Y2308D01*
X460Y2322D01*
X443Y2334D01*
X424Y2342D01*
X403Y2346D01*
X386Y2346D01*
X386Y2773D01*
X374Y2848D01*
X347Y2919D01*
X334Y2943D01*
X281Y2975D01*
X225Y2918D01*
X225Y3031D01*
X193Y3084D01*
X125Y3116D01*
X51Y3133D01*
X-23Y3136D01*
X-98Y3124D01*
X-169Y3097D01*
X-193Y3084D01*
X-225Y3031D01*
X0Y2806D01*
X225Y3031D01*
X225Y2918D01*
X56Y2750D01*
X281Y2524D01*
X334Y2556D01*
X366Y2624D01*
X383Y2698D01*
X386Y2773D01*
X386Y2346D01*
X225Y2346D01*
X225Y2468D01*
X0Y2693D01*
X-56Y2636D01*
X-56Y2750D01*
X-281Y2975D01*
X-334Y2943D01*
X-366Y2875D01*
X-383Y2801D01*
X-386Y2726D01*
X-374Y2651D01*
X-347Y2580D01*
X-334Y2556D01*
X-281Y2524D01*
X-56Y2750D01*
X-56Y2636D01*
X-225Y2468D01*
X-193Y2415D01*
X-125Y2383D01*
X-51Y2366D01*
X23Y2363D01*
X98Y2375D01*
X169Y2402D01*
X193Y2415D01*
X225Y2468D01*
X225Y2346D01*
X66Y2346D01*
X40Y2319D01*
X40Y1729D01*
X472Y1729D01*
X498Y1756D01*
X498Y2231D01*
X498Y1148D01*
X498Y1623D01*
X472Y1649D01*
X40Y1649D01*
X40Y1217D01*
X40Y1060D01*
X40Y745D01*
X216Y745D01*
X242Y771D01*
X242Y1033D01*
X403Y1033D01*
X424Y1037D01*
X443Y1045D01*
X460Y1057D01*
X474Y1071D01*
X486Y1088D01*
X494Y1107D01*
X498Y1127D01*
X498Y1148D01*
X498Y1007D01*
X442Y1007D01*
X422Y1003D01*
X403Y995D01*
X386Y984D01*
X371Y969D01*
X359Y952D01*
X351Y933D01*
X347Y913D01*
X347Y892D01*
X347Y262D01*
X351Y242D01*
X359Y223D01*
X370Y205D01*
X385Y191D01*
X385Y191D01*
X385Y159D01*
X387Y140D01*
X389Y121D01*
X389Y120D01*
X389Y119D01*
X394Y101D01*
X400Y83D01*
X400Y82D01*
X401Y81D01*
X409Y64D01*
X418Y47D01*
X419Y46D01*
X419Y46D01*
X431Y31D01*
X443Y16D01*
X445Y15D01*
X445Y14D01*
X445Y14D01*
X445Y14D01*
X624Y-164D01*
X615Y-206D01*
X614Y-282D01*
X628Y-356D01*
X655Y-426D01*
X696Y-490D01*
X749Y-544D01*
X811Y-587D01*
X880Y-617D01*
X954Y-634D01*
X1029Y-635D01*
X1104Y-622D01*
X1174Y-595D01*
X1238Y-554D01*
X1292Y-502D01*
X1336Y-441D01*
X1367Y-372D01*
X1383Y-298D01*
X1385Y-212D01*
X1385Y-640D01*
X386Y-640D01*
X386Y-226D01*
X374Y-151D01*
X347Y-80D01*
X334Y-56D01*
X281Y-24D01*
X242Y-63D01*
X242Y282D01*
X242Y639D01*
X216Y665D01*
X40Y665D01*
X40Y193D01*
X66Y167D01*
X148Y167D01*
X168Y171D01*
X187Y179D01*
X204Y190D01*
X219Y205D01*
X230Y222D01*
X238Y241D01*
X242Y261D01*
X242Y282D01*
X242Y-63D01*
X225Y-81D01*
X225Y31D01*
X193Y84D01*
X125Y116D01*
X51Y133D01*
X-23Y136D01*
X-40Y133D01*
X-40Y193D01*
X-40Y665D01*
X-40Y745D01*
X-40Y1060D01*
X-40Y1217D01*
X-40Y1649D01*
X-40Y1729D01*
X-40Y2319D01*
X-66Y2346D01*
X-403Y2346D01*
X-424Y2342D01*
X-443Y2334D01*
X-460Y2322D01*
X-474Y2308D01*
X-486Y2291D01*
X-494Y2272D01*
X-498Y2252D01*
X-498Y2231D01*
X-498Y1756D01*
X-472Y1729D01*
X-40Y1729D01*
X-40Y1649D01*
X-472Y1649D01*
X-498Y1623D01*
X-498Y1148D01*
X-498Y1127D01*
X-494Y1107D01*
X-486Y1088D01*
X-474Y1071D01*
X-460Y1057D01*
X-443Y1045D01*
X-424Y1037D01*
X-403Y1033D01*
X-242Y1033D01*
X-242Y771D01*
X-216Y745D01*
X-40Y745D01*
X-40Y665D01*
X-216Y665D01*
X-242Y639D01*
X-242Y282D01*
X-242Y261D01*
X-238Y241D01*
X-230Y222D01*
X-219Y205D01*
X-204Y190D01*
X-187Y179D01*
X-168Y171D01*
X-148Y167D01*
X-66Y167D01*
X-40Y193D01*
X-40Y133D01*
X-98Y124D01*
X-169Y97D01*
X-193Y84D01*
X-225Y31D01*
X0Y-193D01*
X225Y31D01*
X225Y-81D01*
X56Y-250D01*
X281Y-475D01*
X334Y-443D01*
X366Y-375D01*
X383Y-301D01*
X386Y-226D01*
X386Y-640D01*
X225Y-640D01*
X225Y-531D01*
X0Y-306D01*
X-56Y-363D01*
X-56Y-250D01*
X-281Y-24D01*
X-334Y-56D01*
X-347Y-84D01*
X-347Y282D01*
X-347Y912D01*
X-351Y933D01*
X-359Y952D01*
X-370Y969D01*
X-385Y983D01*
X-402Y995D01*
X-421Y1003D01*
X-441Y1007D01*
X-462Y1007D01*
X-738Y1007D01*
X-758Y1003D01*
X-777Y995D01*
X-795Y984D01*
X-795Y2424D01*
X-761Y2445D01*
X-707Y2497D01*
X-663Y2558D01*
X-632Y2627D01*
X-616Y2701D01*
X-614Y2787D01*
X-629Y2861D01*
X-658Y2931D01*
X-700Y2994D01*
X-753Y3048D01*
X-815Y3090D01*
X-885Y3119D01*
X-959Y3134D01*
X-1035Y3135D01*
X-1109Y3121D01*
X-1179Y3092D01*
X-1242Y3051D01*
X-1296Y2998D01*
X-1339Y2936D01*
X-1368Y2866D01*
X-1384Y2793D01*
X-1385Y2717D01*
X-1371Y2643D01*
X-1344Y2573D01*
X-1303Y2509D01*
X-1250Y2455D01*
X-1205Y2423D01*
X-1205Y350D01*
X-1205Y75D01*
X-1242Y51D01*
X-1296Y-1D01*
X-1339Y-63D01*
X-1368Y-133D01*
X-1384Y-206D01*
X-1385Y-282D01*
X-1371Y-356D01*
X-1344Y-426D01*
X-1303Y-490D01*
X-1250Y-544D01*
X-1188Y-587D01*
X-1119Y-617D01*
X-1045Y-634D01*
X-970Y-635D01*
X-895Y-622D01*
X-825Y-595D01*
X-761Y-554D01*
X-707Y-502D01*
X-663Y-441D01*
X-632Y-372D01*
X-616Y-298D01*
X-614Y-212D01*
X-624Y-164D01*
X-445Y14D01*
X-433Y29D01*
X-421Y43D01*
X-420Y44D01*
X-420Y45D01*
X-411Y62D01*
X-402Y78D01*
X-401Y79D01*
X-401Y80D01*
X-395Y98D01*
X-390Y116D01*
X-389Y117D01*
X-389Y118D01*
X-387Y137D01*
X-385Y156D01*
X-385Y158D01*
X-385Y158D01*
X-385Y158D01*
X-385Y159D01*
X-385Y191D01*
X-371Y205D01*
X-359Y222D01*
X-351Y241D01*
X-347Y261D01*
X-347Y282D01*
X-347Y-84D01*
X-366Y-124D01*
X-383Y-198D01*
X-386Y-273D01*
X-374Y-348D01*
X-347Y-419D01*
X-334Y-443D01*
X-281Y-475D01*
X-56Y-250D01*
X-56Y-363D01*
X-225Y-531D01*
X-193Y-584D01*
X-125Y-616D01*
X-51Y-633D01*
X23Y-636D01*
X98Y-624D01*
X169Y-597D01*
X193Y-584D01*
X225Y-531D01*
X225Y-640D01*
X-1390Y-640D01*
X-1390Y3140D01*
X1390Y3140D01*
X1390Y-640D01*
X1390Y-640D01*
G37*
G54D17*
X1390Y-640D02*
X1385Y-640D01*
X1385Y-212D01*
X1370Y-138D01*
X1341Y-68D01*
X1299Y-5D01*
X1246Y48D01*
X1205Y76D01*
X1205Y300D01*
X1205Y2424D01*
X1238Y2445D01*
X1292Y2497D01*
X1336Y2558D01*
X1367Y2627D01*
X1383Y2701D01*
X1385Y2787D01*
X1370Y2861D01*
X1341Y2931D01*
X1299Y2994D01*
X1246Y3048D01*
X1184Y3090D01*
X1114Y3119D01*
X1040Y3134D01*
X964Y3135D01*
X890Y3121D01*
X820Y3092D01*
X757Y3051D01*
X703Y2998D01*
X660Y2936D01*
X631Y2866D01*
X615Y2793D01*
X614Y2717D01*
X628Y2643D01*
X655Y2573D01*
X696Y2509D01*
X749Y2455D01*
X795Y2423D01*
X795Y984D01*
X778Y995D01*
X759Y1003D01*
X739Y1007D01*
X718Y1007D01*
X498Y1007D01*
X498Y1148D01*
X498Y2231D01*
X498Y2252D01*
X494Y2272D01*
X486Y2291D01*
X474Y2308D01*
X460Y2322D01*
X443Y2334D01*
X424Y2342D01*
X403Y2346D01*
X386Y2346D01*
X386Y2773D01*
X374Y2848D01*
X347Y2919D01*
X334Y2943D01*
X281Y2975D01*
X225Y2918D01*
X225Y3031D01*
X193Y3084D01*
X125Y3116D01*
X51Y3133D01*
X-23Y3136D01*
X-98Y3124D01*
X-169Y3097D01*
X-193Y3084D01*
X-225Y3031D01*
X0Y2806D01*
X225Y3031D01*
X225Y2918D01*
X56Y2750D01*
X281Y2524D01*
X334Y2556D01*
X366Y2624D01*
X383Y2698D01*
X386Y2773D01*
X386Y2346D01*
X225Y2346D01*
X225Y2468D01*
X0Y2693D01*
X-56Y2636D01*
X-56Y2750D01*
X-281Y2975D01*
X-334Y2943D01*
X-366Y2875D01*
X-383Y2801D01*
X-386Y2726D01*
X-374Y2651D01*
X-347Y2580D01*
X-334Y2556D01*
X-281Y2524D01*
X-56Y2750D01*
X-56Y2636D01*
X-225Y2468D01*
X-193Y2415D01*
X-125Y2383D01*
X-51Y2366D01*
X23Y2363D01*
X98Y2375D01*
X169Y2402D01*
X193Y2415D01*
X225Y2468D01*
X225Y2346D01*
X66Y2346D01*
X40Y2319D01*
X40Y1729D01*
X472Y1729D01*
X498Y1756D01*
X498Y2231D01*
X498Y1148D01*
X498Y1623D01*
X472Y1649D01*
X40Y1649D01*
X40Y1217D01*
X40Y1060D01*
X40Y745D01*
X216Y745D01*
X242Y771D01*
X242Y1033D01*
X403Y1033D01*
X424Y1037D01*
X443Y1045D01*
X460Y1057D01*
X474Y1071D01*
X486Y1088D01*
X494Y1107D01*
X498Y1127D01*
X498Y1148D01*
X498Y1007D01*
X442Y1007D01*
X422Y1003D01*
X403Y995D01*
X386Y984D01*
X371Y969D01*
X359Y952D01*
X351Y933D01*
X347Y913D01*
X347Y892D01*
X347Y262D01*
X351Y242D01*
X359Y223D01*
X370Y205D01*
X385Y191D01*
X385Y191D01*
X385Y159D01*
X387Y140D01*
X389Y121D01*
X389Y120D01*
X389Y119D01*
X394Y101D01*
X400Y83D01*
X400Y82D01*
X401Y81D01*
X409Y64D01*
X418Y47D01*
X419Y46D01*
X419Y46D01*
X431Y31D01*
X443Y16D01*
X445Y15D01*
X445Y14D01*
X445Y14D01*
X445Y14D01*
X624Y-164D01*
X615Y-206D01*
X614Y-282D01*
X628Y-356D01*
X655Y-426D01*
X696Y-490D01*
X749Y-544D01*
X811Y-587D01*
X880Y-617D01*
X954Y-634D01*
X1029Y-635D01*
X1104Y-622D01*
X1174Y-595D01*
X1238Y-554D01*
X1292Y-502D01*
X1336Y-441D01*
X1367Y-372D01*
X1383Y-298D01*
X1385Y-212D01*
X1385Y-640D01*
X386Y-640D01*
X386Y-226D01*
X374Y-151D01*
X347Y-80D01*
X334Y-56D01*
X281Y-24D01*
X242Y-63D01*
X242Y282D01*
X242Y639D01*
X216Y665D01*
X40Y665D01*
X40Y193D01*
X66Y167D01*
X148Y167D01*
X168Y171D01*
X187Y179D01*
X204Y190D01*
X219Y205D01*
X230Y222D01*
X238Y241D01*
X242Y261D01*
X242Y282D01*
X242Y-63D01*
X225Y-81D01*
X225Y31D01*
X193Y84D01*
X125Y116D01*
X51Y133D01*
X-23Y136D01*
X-40Y133D01*
X-40Y193D01*
X-40Y665D01*
X-40Y745D01*
X-40Y1060D01*
X-40Y1217D01*
X-40Y1649D01*
X-40Y1729D01*
X-40Y2319D01*
X-66Y2346D01*
X-403Y2346D01*
X-424Y2342D01*
X-443Y2334D01*
X-460Y2322D01*
X-474Y2308D01*
X-486Y2291D01*
X-494Y2272D01*
X-498Y2252D01*
X-498Y2231D01*
X-498Y1756D01*
X-472Y1729D01*
X-40Y1729D01*
X-40Y1649D01*
X-472Y1649D01*
X-498Y1623D01*
X-498Y1148D01*
X-498Y1127D01*
X-494Y1107D01*
X-486Y1088D01*
X-474Y1071D01*
X-460Y1057D01*
X-443Y1045D01*
X-424Y1037D01*
X-403Y1033D01*
X-242Y1033D01*
X-242Y771D01*
X-216Y745D01*
X-40Y745D01*
X-40Y665D01*
X-216Y665D01*
X-242Y639D01*
X-242Y282D01*
X-242Y261D01*
X-238Y241D01*
X-230Y222D01*
X-219Y205D01*
X-204Y190D01*
X-187Y179D01*
X-168Y171D01*
X-148Y167D01*
X-66Y167D01*
X-40Y193D01*
X-40Y133D01*
X-98Y124D01*
X-169Y97D01*
X-193Y84D01*
X-225Y31D01*
X0Y-193D01*
X225Y31D01*
X225Y-81D01*
X56Y-250D01*
X281Y-475D01*
X334Y-443D01*
X366Y-375D01*
X383Y-301D01*
X386Y-226D01*
X386Y-640D01*
X225Y-640D01*
X225Y-531D01*
X0Y-306D01*
X-56Y-363D01*
X-56Y-250D01*
X-281Y-24D01*
X-334Y-56D01*
X-347Y-84D01*
X-347Y282D01*
X-347Y912D01*
X-351Y933D01*
X-359Y952D01*
X-370Y969D01*
X-385Y983D01*
X-402Y995D01*
X-421Y1003D01*
X-441Y1007D01*
X-462Y1007D01*
X-738Y1007D01*
X-758Y1003D01*
X-777Y995D01*
X-795Y984D01*
X-795Y2424D01*
X-761Y2445D01*
X-707Y2497D01*
X-663Y2558D01*
X-632Y2627D01*
X-616Y2701D01*
X-614Y2787D01*
X-629Y2861D01*
X-658Y2931D01*
X-700Y2994D01*
X-753Y3048D01*
X-815Y3090D01*
X-885Y3119D01*
X-959Y3134D01*
X-1035Y3135D01*
X-1109Y3121D01*
X-1179Y3092D01*
X-1242Y3051D01*
X-1296Y2998D01*
X-1339Y2936D01*
X-1368Y2866D01*
X-1384Y2793D01*
X-1385Y2717D01*
X-1371Y2643D01*
X-1344Y2573D01*
X-1303Y2509D01*
X-1250Y2455D01*
X-1205Y2423D01*
X-1205Y350D01*
X-1205Y75D01*
X-1242Y51D01*
X-1296Y-1D01*
X-1339Y-63D01*
X-1368Y-133D01*
X-1384Y-206D01*
X-1385Y-282D01*
X-1371Y-356D01*
X-1344Y-426D01*
X-1303Y-490D01*
X-1250Y-544D01*
X-1188Y-587D01*
X-1119Y-617D01*
X-1045Y-634D01*
X-970Y-635D01*
X-895Y-622D01*
X-825Y-595D01*
X-761Y-554D01*
X-707Y-502D01*
X-663Y-441D01*
X-632Y-372D01*
X-616Y-298D01*
X-614Y-212D01*
X-624Y-164D01*
X-445Y14D01*
X-433Y29D01*
X-421Y43D01*
X-420Y44D01*
X-420Y45D01*
X-411Y62D01*
X-402Y78D01*
X-401Y79D01*
X-401Y80D01*
X-395Y98D01*
X-390Y116D01*
X-389Y117D01*
X-389Y118D01*
X-387Y137D01*
X-385Y156D01*
X-385Y158D01*
X-385Y158D01*
X-385Y158D01*
X-385Y159D01*
X-385Y191D01*
X-371Y205D01*
X-359Y222D01*
X-351Y241D01*
X-347Y261D01*
X-347Y282D01*
X-347Y-84D01*
X-366Y-124D01*
X-383Y-198D01*
X-386Y-273D01*
X-374Y-348D01*
X-347Y-419D01*
X-334Y-443D01*
X-281Y-475D01*
X-56Y-250D01*
X-56Y-363D01*
X-225Y-531D01*
X-193Y-584D01*
X-125Y-616D01*
X-51Y-633D01*
X23Y-636D01*
X98Y-624D01*
X169Y-597D01*
X193Y-584D01*
X225Y-531D01*
X225Y-640D01*
X-1390Y-640D01*
X-1390Y3140D01*
X1390Y3140D01*
X1390Y-640D01*
M02*
