G04 (created by PCBNEW (2013-07-07 BZR 4022)-stable) date 2/8/2015 10:10:48 PM*
%MOIN*%
G04 Gerber Fmt 3.4, Leading zero omitted, Abs format*
%FSLAX34Y34*%
G01*
G70*
G90*
G04 APERTURE LIST*
%ADD10C,0.00590551*%
%ADD11C,0.001*%
G04 APERTURE END LIST*
G54D10*
G54D11*
X-1500Y3250D02*
X-1500Y-750D01*
X1500Y3250D02*
X-1500Y3250D01*
X1500Y-750D02*
X1500Y3250D01*
X-1500Y-750D02*
X1500Y-750D01*
M02*
